Lab11/pm.vcd
$date
	Sun Apr  8 18:13:57 2018
$end
$version
	Icarus Verilog
$end
$timescale
	1s
$end
$scope module test $end
$var wire 32 ! PC [31:0] $end
$var reg 1 " clk $end
$var reg 1 # done $end
$var reg 1 $ reset $end
$var integer 32 % i [31:0] $end
$scope module pm $end
$var wire 1 & ForwardA $end
$var wire 1 ' ForwardB $end
$var wire 1 ( PCSrc $end
$var wire 1 " clk $end
$var wire 1 $ reset $end
$var wire 1 ) stall $end
$var wire 1 * zero $end
$var wire 5 + wr_regnum [4:0] $end
$var wire 32 , wr_data [31:0] $end
$var wire 5 - rt [4:0] $end
$var wire 5 . rs [4:0] $end
$var wire 32 / rd2_data [31:0] $end
$var wire 32 0 rd1_data [31:0] $end
$var wire 5 1 rd [4:0] $end
$var wire 6 2 opcode [5:0] $end
$var wire 30 3 next_PC [31:2] $end
$var wire 32 4 load_data [31:0] $end
$var wire 32 5 inst [31:0] $end
$var wire 32 6 imm [31:0] $end
$var wire 6 7 funct [5:0] $end
$var wire 32 8 final_alu_rd2 [31:0] $end
$var wire 32 9 final_alu_rd1 [31:0] $end
$var wire 32 : alu_out_data [31:0] $end
$var wire 1 ; RegWrite $end
$var wire 1 < RegDst $end
$var wire 30 = PC_target [31:2] $end
$var wire 30 > PC_plus4 [31:2] $end
$var wire 32 ? PC [31:0] $end
$var wire 1 @ MemWrite $end
$var wire 1 A MemToReg $end
$var wire 1 B MemRead $end
$var wire 32 C IF_DE_instruction [31:0] $end
$var wire 30 D IF_DE_PC [31:2] $end
$var wire 5 E DE_MW_wrreg [4:0] $end
$var wire 32 F DE_MW_rd2 [31:0] $end
$var wire 32 G DE_MW_alu_result [31:0] $end
$var wire 1 H DE_MW_Regwrite $end
$var wire 1 I DE_MW_MemtoReg $end
$var wire 1 J DE_MW_Mem_wr $end
$var wire 1 K DE_MW_Mem_read $end
$var wire 32 L B_data [31:0] $end
$var wire 1 M BEQ $end
$var wire 1 N ALUSrc $end
$var wire 3 O ALUOp [2:0] $end
$scope module DE_MW_Regwr $end
$var wire 1 " clk $end
$var wire 1 P enable $end
$var wire 1 Q reset $end
$var wire 1 ; d $end
$var reg 1 H q $end
$upscope $end
$scope module DE_MW_WR_reg $end
$var wire 1 " clk $end
$var wire 1 R enable $end
$var wire 1 $ reset $end
$var wire 5 S d [4:0] $end
$var reg 5 T q [4:0] $end
$upscope $end
$scope module DE_MW_alu $end
$var wire 1 " clk $end
$var wire 1 U enable $end
$var wire 1 $ reset $end
$var wire 32 V d [31:0] $end
$var reg 32 W q [31:0] $end
$upscope $end
$scope module DE_MW_memread $end
$var wire 1 " clk $end
$var wire 1 X enable $end
$var wire 1 $ reset $end
$var wire 1 B d $end
$var reg 1 K q $end
$upscope $end
$scope module DE_MW_memtoreg $end
$var wire 1 " clk $end
$var wire 1 Y enable $end
$var wire 1 $ reset $end
$var wire 1 A d $end
$var reg 1 I q $end
$upscope $end
$scope module DE_MW_memwrite $end
$var wire 1 " clk $end
$var wire 1 Z enable $end
$var wire 1 [ reset $end
$var wire 1 @ d $end
$var reg 1 J q $end
$upscope $end
$scope module DE_MW_rd2_data $end
$var wire 1 " clk $end
$var wire 1 \ enable $end
$var wire 1 $ reset $end
$var wire 32 ] d [31:0] $end
$var reg 32 ^ q [31:0] $end
$upscope $end
$scope module FwdA $end
$var wire 32 _ B [31:0] $end
$var wire 32 ` out [31:0] $end
$var wire 1 & sel $end
$var wire 32 a temp1 [31:0] $end
$var wire 32 b temp2 [31:0] $end
$var wire 32 c A [31:0] $end
$upscope $end
$scope module FwdB $end
$var wire 32 d B [31:0] $end
$var wire 32 e out [31:0] $end
$var wire 1 ' sel $end
$var wire 32 f temp1 [31:0] $end
$var wire 32 g temp2 [31:0] $end
$var wire 32 h A [31:0] $end
$upscope $end
$scope module IF_DE_PCadd $end
$var wire 1 " clk $end
$var wire 1 i enable $end
$var wire 1 j reset $end
$var wire 30 k d [29:0] $end
$var reg 30 l q [29:0] $end
$upscope $end
$scope module IF_DE_inst $end
$var wire 1 " clk $end
$var wire 1 m enable $end
$var wire 1 n reset $end
$var wire 32 o d [31:0] $end
$var reg 32 p q [31:0] $end
$upscope $end
$scope module PC_reg $end
$var wire 1 " clk $end
$var wire 1 q enable $end
$var wire 1 $ reset $end
$var wire 30 r d [29:0] $end
$var reg 30 s q [29:0] $end
$upscope $end
$scope module alu $end
$var wire 32 t inA [31:0] $end
$var wire 32 u out [31:0] $end
$var wire 1 * zero $end
$var wire 32 v inB [31:0] $end
$var wire 3 w control [2:0] $end
$upscope $end
$scope module branch_mux $end
$var wire 30 x out [29:0] $end
$var wire 1 ( sel $end
$var wire 30 y temp1 [29:0] $end
$var wire 30 z temp2 [29:0] $end
$var wire 30 { B [29:0] $end
$var wire 30 | A [29:0] $end
$upscope $end
$scope module data_memory $end
$var wire 32 } addr [31:0] $end
$var wire 1 " clk $end
$var wire 32 ~ d_out [31:0] $end
$var wire 32 !" data_in [31:0] $end
$var wire 32 "" data_out [31:0] $end
$var wire 32 #" internal_data_in [31:0] $end
$var wire 1 K mem_read $end
$var wire 1 J mem_write $end
$var wire 1 $ reset $end
$var wire 1 $" valid_address $end
$var wire 19 %" index [18:0] $end
$var integer 32 &" i [31:0] $end
$upscope $end
$scope module decode $end
$var wire 1 N ALUSrc $end
$var wire 1 A MemToReg $end
$var wire 1 < RegDst $end
$var wire 1 ; RegWrite $end
$var wire 6 '" funct [5:0] $end
$var wire 1 (" nop $end
$var wire 6 )" opcode [5:0] $end
$var wire 1 *" op0 $end
$var wire 1 @ MemWrite $end
$var wire 1 B MemRead $end
$var wire 1 M BEQ $end
$var wire 3 +" ALUOp [2:0] $end
$upscope $end
$scope module imem $end
$var wire 30 ," addr [29:0] $end
$var wire 32 -" data [31:0] $end
$var reg 32 ." i [31:0] $end
$upscope $end
$scope module imm_mux $end
$var wire 32 /" A [31:0] $end
$var wire 32 0" B [31:0] $end
$var wire 32 1" out [31:0] $end
$var wire 1 N sel $end
$var wire 32 2" temp1 [31:0] $end
$var wire 32 3" temp2 [31:0] $end
$upscope $end
$scope module next_PC_adder $end
$var wire 30 4" in1 [29:0] $end
$var wire 30 5" in2 [29:0] $end
$var wire 30 6" out [29:0] $end
$upscope $end
$scope module rd_mux $end
$var wire 5 7" A [4:0] $end
$var wire 5 8" B [4:0] $end
$var wire 5 9" out [4:0] $end
$var wire 1 < sel $end
$var wire 5 :" temp1 [4:0] $end
$var wire 5 ;" temp2 [4:0] $end
$upscope $end
$scope module rf $end
$var wire 1 " clock $end
$var wire 32 <" internal_rdData [31:0] $end
$var wire 5 =" rdNum [4:0] $end
$var wire 1 H rdWriteEnable $end
$var wire 1 $ reset $end
$var wire 32 >" rsData [31:0] $end
$var wire 5 ?" rsNum [4:0] $end
$var wire 32 @" rtData [31:0] $end
$var wire 5 A" rtNum [4:0] $end
$var wire 32 B" rdData [31:0] $end
$var integer 32 C" i [31:0] $end
$upscope $end
$scope module target_PC_adder $end
$var wire 30 D" in1 [29:0] $end
$var wire 30 E" in2 [29:0] $end
$var wire 30 F" out [29:0] $end
$upscope $end
$scope module wb_mux $end
$var wire 32 G" A [31:0] $end
$var wire 32 H" B [31:0] $end
$var wire 32 I" out [31:0] $end
$var wire 1 I sel $end
$var wire 32 J" temp1 [31:0] $end
$var wire 32 K" temp2 [31:0] $end
$upscope $end
$upscope $end
$upscope $end
$scope module test $end
$scope module pm $end
$scope module rf $end
$var reg 32 L" \r[0] [31:0] $end
$upscope $end
$upscope $end
$upscope $end
$scope module test $end
$scope module pm $end
$scope module rf $end
$var reg 32 M" \r[1] [31:0] $end
$upscope $end
$upscope $end
$upscope $end
$scope module test $end
$scope module pm $end
$scope module rf $end
$var reg 32 N" \r[2] [31:0] $end
$upscope $end
$upscope $end
$upscope $end
$scope module test $end
$scope module pm $end
$scope module rf $end
$var reg 32 O" \r[3] [31:0] $end
$upscope $end
$upscope $end
$upscope $end
$scope module test $end
$scope module pm $end
$scope module rf $end
$var reg 32 P" \r[4] [31:0] $end
$upscope $end
$upscope $end
$upscope $end
$scope module test $end
$scope module pm $end
$scope module rf $end
$var reg 32 Q" \r[5] [31:0] $end
$upscope $end
$upscope $end
$upscope $end
$scope module test $end
$scope module pm $end
$scope module rf $end
$var reg 32 R" \r[6] [31:0] $end
$upscope $end
$upscope $end
$upscope $end
$scope module test $end
$scope module pm $end
$scope module rf $end
$var reg 32 S" \r[7] [31:0] $end
$upscope $end
$upscope $end
$upscope $end
$scope module test $end
$scope module pm $end
$scope module rf $end
$var reg 32 T" \r[8] [31:0] $end
$upscope $end
$upscope $end
$upscope $end
$scope module test $end
$scope module pm $end
$scope module rf $end
$var reg 32 U" \r[9] [31:0] $end
$upscope $end
$upscope $end
$upscope $end
$scope module test $end
$scope module pm $end
$scope module rf $end
$var reg 32 V" \r[10] [31:0] $end
$upscope $end
$upscope $end
$upscope $end
$scope module test $end
$scope module pm $end
$scope module rf $end
$var reg 32 W" \r[11] [31:0] $end
$upscope $end
$upscope $end
$upscope $end
$scope module test $end
$scope module pm $end
$scope module rf $end
$var reg 32 X" \r[12] [31:0] $end
$upscope $end
$upscope $end
$upscope $end
$scope module test $end
$scope module pm $end
$scope module rf $end
$var reg 32 Y" \r[13] [31:0] $end
$upscope $end
$upscope $end
$upscope $end
$scope module test $end
$scope module pm $end
$scope module rf $end
$var reg 32 Z" \r[14] [31:0] $end
$upscope $end
$upscope $end
$upscope $end
$scope module test $end
$scope module pm $end
$scope module rf $end
$var reg 32 [" \r[15] [31:0] $end
$upscope $end
$upscope $end
$upscope $end
$scope module test $end
$scope module pm $end
$scope module rf $end
$var reg 32 \" \r[16] [31:0] $end
$upscope $end
$upscope $end
$upscope $end
$scope module test $end
$scope module pm $end
$scope module rf $end
$var reg 32 ]" \r[17] [31:0] $end
$upscope $end
$upscope $end
$upscope $end
$scope module test $end
$scope module pm $end
$scope module rf $end
$var reg 32 ^" \r[18] [31:0] $end
$upscope $end
$upscope $end
$upscope $end
$scope module test $end
$scope module pm $end
$scope module rf $end
$var reg 32 _" \r[19] [31:0] $end
$upscope $end
$upscope $end
$upscope $end
$scope module test $end
$scope module pm $end
$scope module rf $end
$var reg 32 `" \r[20] [31:0] $end
$upscope $end
$upscope $end
$upscope $end
$scope module test $end
$scope module pm $end
$scope module rf $end
$var reg 32 a" \r[21] [31:0] $end
$upscope $end
$upscope $end
$upscope $end
$scope module test $end
$scope module pm $end
$scope module rf $end
$var reg 32 b" \r[22] [31:0] $end
$upscope $end
$upscope $end
$upscope $end
$scope module test $end
$scope module pm $end
$scope module rf $end
$var reg 32 c" \r[23] [31:0] $end
$upscope $end
$upscope $end
$upscope $end
$scope module test $end
$scope module pm $end
$scope module rf $end
$var reg 32 d" \r[24] [31:0] $end
$upscope $end
$upscope $end
$upscope $end
$scope module test $end
$scope module pm $end
$scope module rf $end
$var reg 32 e" \r[25] [31:0] $end
$upscope $end
$upscope $end
$upscope $end
$scope module test $end
$scope module pm $end
$scope module rf $end
$var reg 32 f" \r[26] [31:0] $end
$upscope $end
$upscope $end
$upscope $end
$scope module test $end
$scope module pm $end
$scope module rf $end
$var reg 32 g" \r[27] [31:0] $end
$upscope $end
$upscope $end
$upscope $end
$scope module test $end
$scope module pm $end
$scope module rf $end
$var reg 32 h" \r[28] [31:0] $end
$upscope $end
$upscope $end
$upscope $end
$scope module test $end
$scope module pm $end
$scope module rf $end
$var reg 32 i" \r[29] [31:0] $end
$upscope $end
$upscope $end
$upscope $end
$scope module test $end
$scope module pm $end
$scope module rf $end
$var reg 32 j" \r[30] [31:0] $end
$upscope $end
$upscope $end
$upscope $end
$scope module test $end
$scope module pm $end
$scope module rf $end
$var reg 32 k" \r[31] [31:0] $end
$upscope $end
$upscope $end
$upscope $end
$enddefinitions $end
#0
$dumpvars
b10000000000010000000000000000 k"
b10000000000010000000000000000 j"
b10000000000010000000000000000 i"
b10000000000010000000000000000 h"
b10000000000010000000000000000 g"
b10000000000010000000000000000 f"
b10000000000010000000000000000 e"
b10000000000010000000000000000 d"
b10000000000010000000000000000 c"
b10000000000010000000000000000 b"
b10000000000010000000000000000 a"
b10000000000010000000000000000 `"
b10000000000010000000000000000 _"
b10000000000010000000000000000 ^"
b10000000000010000000000000000 ]"
b10000000000010000000000000000 \"
b10000000000010000000000000000 ["
b10000000000010000000000000000 Z"
b10000000000010000000000000000 Y"
b10000000000010000000000000000 X"
b10000000000010000000000000000 W"
b10000000000010000000000000000 V"
b10000000000010000000000000000 U"
b10000000000010000000000000000 T"
b10000000000010000000000000000 S"
b10000000000010000000000000000 R"
b10000000000010000000000000000 Q"
b10000000000010000000000000000 P"
b10000000000010000000000000000 O"
b10000000000010000000000000000 N"
b10000000000010000000000000000 M"
b0 L"
bx K"
bx J"
bx I"
bx H"
bx G"
bx F"
bx E"
bx D"
b100000 C"
bx B"
bx A"
bx @"
bx ?"
bx >"
bx ="
bx <"
bx ;"
bx :"
bx 9"
bx 8"
bx 7"
bx 6"
b1 5"
bx 4"
bx 3"
bx 2"
bx 1"
bx 0"
bx /"
b100000000 ."
bx -"
bx ,"
bx +"
x*"
bx )"
x("
bx '"
b1000000000000000000 &"
bx %"
x$"
bx #"
bx ""
bx !"
bx ~
bx }
bx |
bx {
bx z
bx y
bx x
bx w
bx v
bx u
bx t
bx s
bx r
xq
bx p
bx o
1n
xm
bx l
bx k
1j
xi
bx h
bx g
bx f
bx e
bx d
bx c
bx b
bx a
bx `
bx _
bx ^
bx ]
1\
1[
1Z
1Y
1X
bx W
bx V
1U
bx T
bx S
1R
1Q
1P
bx O
xN
xM
bx L
xK
xJ
xI
xH
bx G
bx F
bx E
bx D
bx C
xB
xA
x@
bx00 ?
bx >
bx =
x<
x;
bx :
bx 9
bx 8
bx 7
bx 6
bx 5
bx 4
bx 3
bx 2
bx 1
bx 0
bx /
bx .
bx -
bx ,
bx +
x*
x)
x(
x'
x&
b100000 %
1$
0#
0"
bx00 !
$end
#2
b0 +
b0 S
b0 9"
1m
1i
1q
b0 ;"
b0 :"
b0 E"
b0 3"
b11011110101011011011111011101111 ~
b0 %"
0)
b0 ,
b0 B"
b0 I"
b100000000000000000000 4"
b100000000000000000000 ,"
b0 7
b0 '"
1*"
b0 2
b0 )"
b0 1
b0 8"
b0 -
b0 7"
b0 A"
b0 .
b0 ?"
b0 6
b0 0"
b0 b
b0 g
0$"
0'
0&
b0 J"
b0 K"
b10000000000000000000000 ?
b10000000000000000000000 !
b100000000000000000000 s
b0 D
b0 l
b0 D"
b0 C
b0 p
b0 G
b0 W
b0 _
b0 d
b0 }
b0 G"
b0 F
b0 ^
b0 !"
b0 E
b0 T
b0 ="
0K
0J
0I
0H
1"
#3
b0 L
b0 v
b0 1"
b0 2"
b0 8
b0 ]
b0 e
b0 /"
b0 9
b0 `
b0 t
b0 f
b0 a
b0 <"
b0 /
b0 h
b0 @"
b0 0
b0 c
b0 >"
#4
0;
b100000000000000000001 3
b100000000000000000001 r
b100000000000000000001 x
b0 z
b100000000000000000001 y
0(
1<
0N
1*
b0 O
b0 w
b0 +"
1("
b0 =
b0 {
b0 F"
b100000000000000000001 >
b100000000000000000001 k
b100000000000000000001 |
b100000000000000000001 6"
0M
0A
0B
0@
0"
#5
b0 :
b0 V
b0 u
b10001110100000100000000000000000 5
b10001110100000100000000000000000 o
b10001110100000100000000000000000 -"
b0 4
b0 ""
b0 H"
b0 #"
#6
1"
#7
0j
0n
0[
0Q
0$
#8
0"
#10
b100000000000000000001 4"
b100000000000000000001 ,"
0*"
b100011 2
b100011 )"
b10 -
b10 7"
b10 A"
b10100 .
b10100 ?"
b10000000000000000000100 ?
b10000000000000000000100 !
b100000000000000000001 s
b100000000000000000001 D
b100000000000000000001 l
b100000000000000000001 D"
b10001110100000100000000000000000 C
b10001110100000100000000000000000 p
1"
#11
b10000000000010000000000000000 L
b10000000000010000000000000000 v
b10000000000010000000000000000 1"
b10000000000010000000000000000 2"
b10000000000010000000000000000 8
b10000000000010000000000000000 ]
b10000000000010000000000000000 e
b10000000000010000000000000000 /"
b10000000000010000000000000000 9
b10000000000010000000000000000 `
b10000000000010000000000000000 t
b10000000000010000000000000000 f
b10000000000010000000000000000 a
b10000000000010000000000000000 /
b10000000000010000000000000000 h
b10000000000010000000000000000 @"
b10000000000010000000000000000 0
b10000000000010000000000000000 c
b10000000000010000000000000000 >"
#12
b10 +
b10 S
b10 9"
b0 L
b0 v
b0 1"
1;
b100000000000000000010 3
b100000000000000000010 r
b100000000000000000010 x
b10 :"
b0 2"
b100000000000000000010 y
0<
1N
0("
b100000000000000000010 >
b100000000000000000010 k
b100000000000000000010 |
b100000000000000000010 6"
1A
1B
b100000000000000000001 =
b100000000000000000001 {
b100000000000000000001 F"
0"
#13
0*
b10001110100000110000000000000100 5
b10001110100000110000000000000100 o
b10001110100000110000000000000100 -"
#14
b11 +
b11 S
b11 9"
b100 L
b100 v
b100 1"
b1 ~
b100000000000000 %"
b11 :"
b100 E"
b100 3"
1$"
b100 7
b100 '"
b11 -
b11 7"
b11 A"
b100 6
b100 0"
b100000000000000000010 4"
b100000000000000000010 ,"
1H
1I
1K
b10 E
b10 T
b10 ="
b10000000000010000000000000000 F
b10000000000010000000000000000 ^
b10000000000010000000000000000 !"
b10000000000010000000000000000 G
b10000000000010000000000000000 W
b10000000000010000000000000000 _
b10000000000010000000000000000 d
b10000000000010000000000000000 }
b10000000000010000000000000000 G"
b10001110100000110000000000000100 C
b10001110100000110000000000000100 p
b100000000000000000010 D
b100000000000000000010 l
b100000000000000000010 D"
b10000000000000000001000 ?
b10000000000000000001000 !
b100000000000000000010 s
b10000000000010000000000000000 :
b10000000000010000000000000000 V
b10000000000010000000000000000 u
1"
#16
b100000000000000000011 3
b100000000000000000011 r
b100000000000000000011 x
b100000000000000000011 y
b10000000000010000000000000100 :
b10000000000010000000000000100 V
b10000000000010000000000000100 u
b100000000000000000011 >
b100000000000000000011 k
b100000000000000000011 |
b100000000000000000011 6"
b100000000000000000110 =
b100000000000000000110 {
b100000000000000000110 F"
0"
#17
b1 ,
b1 B"
b1 I"
b1 K"
b10001110100001000000000000001000 5
b10001110100001000000000000001000 o
b10001110100001000000000000001000 -"
b1 4
b1 ""
b1 H"
b10000000000010000000000000000 #"
#18
b10000000000010000000000000000 8
b10000000000010000000000000000 ]
b10000000000010000000000000000 e
b10000000000010000000000000000 /"
b100 +
b100 S
b100 9"
b1000 L
b1000 v
b1000 1"
b10000000000010000000000000000 f
b0 g
b100 :"
b1000 E"
b1000 3"
b11111111 ~
b100000000000001 %"
0'
b100000000000000000011 4"
b100000000000000000011 ,"
b1000 7
b1000 '"
b100 -
b100 7"
b100 A"
b1000 6
b1000 0"
b10000000000000000001100 ?
b10000000000000000001100 !
b100000000000000000011 s
b1 N"
b100000000000000000011 D
b100000000000000000011 l
b100000000000000000011 D"
b10001110100001000000000000001000 C
b10001110100001000000000000001000 p
b10000000000010000000000000100 G
b10000000000010000000000000100 W
b10000000000010000000000000100 _
b10000000000010000000000000100 d
b10000000000010000000000000100 }
b10000000000010000000000000100 G"
b11 E
b11 T
b11 ="
b1 <"
1"
#20
b100000000000000000100 3
b100000000000000000100 r
b100000000000000000100 x
b100000000000000000100 y
b10000000000010000000000001000 :
b10000000000010000000000001000 V
b10000000000010000000000001000 u
b100000000000000000100 >
b100000000000000000100 k
b100000000000000000100 |
b100000000000000000100 6"
b100000000000000001011 =
b100000000000000001011 {
b100000000000000001011 F"
0"
#21
b11111111 ,
b11111111 B"
b11111111 I"
b11111111 K"
b11111111 4
b11111111 ""
b11111111 H"
b10001110100001010000000000001100 5
b10001110100001010000000000001100 o
b10001110100001010000000000001100 -"
#22
b101 +
b101 S
b101 9"
b1100 L
b1100 v
b1100 1"
b10000000000 ~
b100000000000010 %"
b101 :"
b1100 E"
b1100 3"
b1100 7
b1100 '"
b101 -
b101 7"
b101 A"
b1100 6
b1100 0"
b100000000000000000100 4"
b100000000000000000100 ,"
b100 E
b100 T
b100 ="
b10000000000010000000000001000 G
b10000000000010000000000001000 W
b10000000000010000000000001000 _
b10000000000010000000000001000 d
b10000000000010000000000001000 }
b10000000000010000000000001000 G"
b10001110100001010000000000001100 C
b10001110100001010000000000001100 p
b100000000000000000100 D
b100000000000000000100 l
b100000000000000000100 D"
b11111111 O"
b10000000000000000010000 ?
b10000000000000000010000 !
b100000000000000000100 s
b11111111 <"
1"
#24
b100000000000000000101 3
b100000000000000000101 r
b100000000000000000101 x
b100000000000000000101 y
b10000000000010000000000001100 :
b10000000000010000000000001100 V
b10000000000010000000000001100 u
b100000000000000000101 >
b100000000000000000101 k
b100000000000000000101 |
b100000000000000000101 6"
b100000000000000010000 =
b100000000000000010000 {
b100000000000000010000 F"
0"
#25
b10000000000 ,
b10000000000 B"
b10000000000 I"
b10000000000 K"
b10000000000 4
b10000000000 ""
b10000000000 H"
b10001110100001100000000000010000 5
b10001110100001100000000000010000 o
b10001110100001100000000000010000 -"
#26
b10000000000010000000000000000 8
b10000000000010000000000000000 ]
b10000000000010000000000000000 e
b10000000000010000000000000000 /"
b110 +
b110 S
b110 9"
b10000 L
b10000 v
b10000 1"
b10000000000010000000000000000 f
b0 g
b110 :"
b10000 E"
b10000 3"
b1100100 ~
b100000000000011 %"
0'
b100000000000000000101 4"
b100000000000000000101 ,"
b10000 7
b10000 '"
b110 -
b110 7"
b110 A"
b10000 6
b10000 0"
b10000000000000000010100 ?
b10000000000000000010100 !
b100000000000000000101 s
b10000000000 P"
b100000000000000000101 D
b100000000000000000101 l
b100000000000000000101 D"
b10001110100001100000000000010000 C
b10001110100001100000000000010000 p
b10000000000010000000000001100 G
b10000000000010000000000001100 W
b10000000000010000000000001100 _
b10000000000010000000000001100 d
b10000000000010000000000001100 }
b10000000000010000000000001100 G"
b101 E
b101 T
b101 ="
b10000000000 <"
1"
#28
b100000000000000000110 3
b100000000000000000110 r
b100000000000000000110 x
b100000000000000000110 y
b10000000000010000000000010000 :
b10000000000010000000000010000 V
b10000000000010000000000010000 u
b100000000000000000110 >
b100000000000000000110 k
b100000000000000000110 |
b100000000000000000110 6"
b100000000000000010101 =
b100000000000000010101 {
b100000000000000010101 F"
0"
#29
b1100100 ,
b1100100 B"
b1100100 I"
b1100100 K"
b1100100 4
b1100100 ""
b1100100 H"
b10001010011100000100000 5
b10001010011100000100000 o
b10001010011100000100000 -"
#30
b101 +
b101 S
b101 9"
b11100000100000 L
b11100000100000 v
b11100000100000 1"
b11001000 ~
b100000000000100 %"
b101 :"
b11100000100000 E"
b11100000100000 3"
b100000 7
b100000 '"
1*"
b0 2
b0 )"
b111 1
b111 8"
b101 -
b101 7"
b101 A"
b10 .
b10 ?"
b11100000100000 6
b11100000100000 0"
b100000000000000000110 4"
b100000000000000000110 ,"
b110 E
b110 T
b110 ="
b10000000000010000000000010000 G
b10000000000010000000000010000 W
b10000000000010000000000010000 _
b10000000000010000000000010000 d
b10000000000010000000000010000 }
b10000000000010000000000010000 G"
b10001010011100000100000 C
b10001010011100000100000 p
b100000000000000000110 D
b100000000000000000110 l
b100000000000000000110 D"
b1100100 Q"
b10000000000000000011000 ?
b10000000000000000011000 !
b100000000000000000110 s
b1100100 <"
1"
#31
b1100100 8
b1100100 ]
b1100100 e
b1100100 /"
b1 9
b1 `
b1 t
b1100100 f
b1 a
b1100100 /
b1100100 h
b1100100 @"
b1 0
b1 c
b1 >"
#32
b111 +
b111 S
b111 9"
b1100100 L
b1100100 v
b1100100 1"
b0 :"
b111 ;"
b1100100 2"
b0 3"
b100000000000000000111 3
b100000000000000000111 r
b100000000000000000111 x
1<
0N
b100000000000000000111 y
0A
0B
b100000000000000000111 >
b100000000000000000111 k
b100000000000000000111 |
b100000000000000000111 6"
b100000011100000100110 =
b100000011100000100110 {
b100000011100000100110 F"
0"
#33
b11001000 ,
b11001000 B"
b11001000 I"
b11001000 K"
b11001000 4
b11001000 ""
b11001000 H"
b111001000100000000100000 5
b111001000100000000100000 o
b111001000100000000100000 -"
#34
b1100101 9
b1100101 `
b1100101 t
b0 a
b1100101 b
b1000 +
b1000 S
b1000 9"
1&
b1000 ;"
b100000000100000 E"
b11011110101011011011111011101111 ~
b11001 %"
b1100101 ,
b1100101 B"
b1100101 I"
b100000000000000000111 4"
b100000000000000000111 ,"
b1000 1
b1000 8"
b100 -
b100 7"
b100 A"
b111 .
b111 ?"
b100000000100000 6
b100000000100000 0"
0$"
b1100101 J"
b0 K"
b10000000000000000011100 ?
b10000000000000000011100 !
b100000000000000000111 s
b11001000 R"
b100000000000000000111 D
b100000000000000000111 l
b100000000000000000111 D"
b111001000100000000100000 C
b111001000100000000100000 p
b1100101 G
b1100101 W
b1100101 _
b1100101 d
b1100101 }
b1100101 G"
b1100100 F
b1100100 ^
b1100100 !"
b111 E
b111 T
b111 ="
0K
0I
b11001000 <"
b1100101 :
b1100101 V
b1100101 u
1"
#35
b10000000000 L
b10000000000 v
b10000000000 1"
b10000000000 2"
b10000000000 8
b10000000000 ]
b10000000000 e
b10000000000 /"
b10000000000 f
b1100101 <"
b10000000000 /
b10000000000 h
b10000000000 @"
b10000000000010000000000000000 0
b10000000000010000000000000000 c
b10000000000010000000000000000 >"
#36
b100000000000000001000 3
b100000000000000001000 r
b100000000000000001000 x
b100000000000000001000 y
b100000000000000001000 >
b100000000000000001000 k
b100000000000000001000 |
b100000000000000001000 6"
b100000100000000100111 =
b100000100000000100111 {
b100000100000000100111 F"
0"
#37
b10001100101 :
b10001100101 V
b10001100101 u
b11001100100100000100000 5
b11001100100100000100000 o
b11001100100100000100000 -"
b0 4
b0 ""
b0 H"
b1100100 #"
#38
b10000000000010000000000000000 a
b1001 +
b1001 S
b1001 9"
0&
b10000000000010000000000000000 9
b10000000000010000000000000000 `
b10000000000010000000000000000 t
b100011001 %"
b10001100101 ,
b10001100101 B"
b10001100101 I"
b1001 ;"
b100100000100000 E"
b0 b
b10001100101 J"
b1001 1
b1001 8"
b110 -
b110 7"
b110 A"
b11 .
b11 ?"
b100100000100000 6
b100100000100000 0"
b100000000000000001000 4"
b100000000000000001000 ,"
b1000 E
b1000 T
b1000 ="
b10000000000 F
b10000000000 ^
b10000000000 !"
b10001100101 G
b10001100101 W
b10001100101 _
b10001100101 d
b10001100101 }
b10001100101 G"
b11001100100100000100000 C
b11001100100100000100000 p
b100000000000000001000 D
b100000000000000001000 l
b100000000000000001000 D"
b1100101 S"
b10000000000000000100000 ?
b10000000000000000100000 !
b100000000000000001000 s
1"
#39
b11001000 L
b11001000 v
b11001000 1"
b11001000 2"
b11001000 8
b11001000 ]
b11001000 e
b11001000 /"
b11111111 9
b11111111 `
b11111111 t
b11001000 f
b11111111 a
b10001100101 <"
b11001000 /
b11001000 h
b11001000 @"
b11111111 0
b11111111 c
b11111111 >"
#40
b100000000000000001001 3
b100000000000000001001 r
b100000000000000001001 x
b100000000000000001001 y
b100000000000000001001 >
b100000000000000001001 k
b100000000000000001001 |
b100000000000000001001 6"
b100000100100000101000 =
b100000100100000101000 {
b100000100100000101000 F"
0"
#41
b111000111 :
b111000111 V
b111000111 u
b10010010101000000100000 5
b10010010101000000100000 o
b10010010101000000100000 -"
b10000000000 #"
#42
b111000111 L
b111000111 v
b111000111 1"
b111000111 2"
b111000111 8
b111000111 ]
b111000111 e
b111000111 /"
b0 f
b111000111 g
b1010 +
b1010 S
b1010 9"
1'
b1010 ;"
b101000000100000 E"
b1110001 %"
b111000111 ,
b111000111 B"
b111000111 I"
b100000000000000001001 4"
b100000000000000001001 ,"
b1010 1
b1010 8"
b1001 -
b1001 7"
b1001 A"
b10 .
b10 ?"
b101000000100000 6
b101000000100000 0"
b111000111 J"
b10000000000000000100100 ?
b10000000000000000100100 !
b100000000000000001001 s
b10001100101 T"
b100000000000000001001 D
b100000000000000001001 l
b100000000000000001001 D"
b10010010101000000100000 C
b10010010101000000100000 p
b111000111 G
b111000111 W
b111000111 _
b111000111 d
b111000111 }
b111000111 G"
b11001000 F
b11001000 ^
b11001000 !"
b1001 E
b1001 T
b1001 ="
1"
#43
b1 9
b1 `
b1 t
b1 a
b111000111 <"
b10000000000010000000000000000 /
b10000000000010000000000000000 h
b10000000000010000000000000000 @"
b1 0
b1 c
b1 >"
#44
b100000000000000001010 3
b100000000000000001010 r
b100000000000000001010 x
b100000000000000001010 y
b100000000000000001010 >
b100000000000000001010 k
b100000000000000001010 |
b100000000000000001010 6"
b100000101000000101001 =
b100000101000000101001 {
b100000101000000101001 F"
0"
#45
b111001000 :
b111001000 V
b111001000 u
b10000110101100000100000 5
b10000110101100000100000 o
b10000110101100000100000 -"
b11001000 #"
#46
b10000000000010000000000000000 L
b10000000000010000000000000000 v
b10000000000010000000000000000 1"
b10000000000010000000000000000 f
b10000000000010000000000000000 2"
b1011 +
b1011 S
b1011 9"
0'
b10000000000010000000000000000 8
b10000000000010000000000000000 ]
b10000000000010000000000000000 e
b10000000000010000000000000000 /"
b1110010 %"
b111001000 ,
b111001000 B"
b111001000 I"
b1011 ;"
b101100000100000 E"
b0 g
b111001000 J"
b1011 1
b1011 8"
b11 -
b11 7"
b11 A"
b101100000100000 6
b101100000100000 0"
b100000000000000001010 4"
b100000000000000001010 ,"
b1010 E
b1010 T
b1010 ="
b111000111 F
b111000111 ^
b111000111 !"
b111001000 G
b111001000 W
b111001000 _
b111001000 d
b111001000 }
b111001000 G"
b10000110101100000100000 C
b10000110101100000100000 p
b100000000000000001010 D
b100000000000000001010 l
b100000000000000001010 D"
b111000111 U"
b10000000000000000101000 ?
b10000000000000000101000 !
b100000000000000001010 s
1"
