Lab4/palindrome_control.vcd
$date
	Sun Feb 11 18:33:05 2018
$end
$version
	Icarus Verilog
$end
$timescale
	1s
$end
$scope module palindrome_control_test $end
$var wire 1 ! select $end
$var wire 1 " palindrome $end
$var wire 1 # load $end
$var wire 1 $ front_ge_back $end
$var wire 1 % done $end
$var wire 1 & a_ne_b $end
$var reg 5 ' base [4:0] $end
$var reg 1 ( clock $end
$var reg 5 ) ending [4:0] $end
$var reg 1 * go $end
$var reg 1 + reset $end
$var integer 32 , i [31:0] $end
$scope module circuit $end
$var wire 5 - base [4:0] $end
$var wire 1 ( clk $end
$var wire 5 . ending [4:0] $end
$var wire 1 $ front_ge_back $end
$var wire 1 + reset $end
$var wire 1 ! select $end
$var wire 1 # load $end
$var wire 1 / front_lt_back $end
$var wire 32 0 b [31:0] $end
$var wire 1 & a_ne_b $end
$var wire 32 1 a [31:0] $end
$var reg 5 2 back [4:0] $end
$var reg 5 3 front [4:0] $end
$scope module compareCounters $end
$var wire 5 4 A [4:0] $end
$var wire 5 5 B [4:0] $end
$var wire 1 6 ne $end
$var wire 1 / lt $end
$upscope $end
$scope module compareValues $end
$var wire 1 & ne $end
$var wire 1 7 lt $end
$var wire 32 8 B [31:0] $end
$var wire 32 9 A [31:0] $end
$upscope $end
$scope module rf $end
$var wire 1 ( clock $end
$var wire 32 : internal_rdData [31:0] $end
$var wire 32 ; rdData [31:0] $end
$var wire 5 < rdNum [4:0] $end
$var wire 1 = rdWriteEnable $end
$var wire 1 + reset $end
$var wire 32 > rsData [31:0] $end
$var wire 5 ? rsNum [4:0] $end
$var wire 32 @ rtData [31:0] $end
$var wire 5 A rtNum [4:0] $end
$var integer 32 B i [31:0] $end
$upscope $end
$upscope $end
$scope module control $end
$var wire 1 & a_ne_b $end
$var wire 1 ( clock $end
$var wire 1 $ front_ge_back $end
$var wire 1 * go $end
$var wire 1 + reset $end
$var wire 1 C sAccept_next $end
$var wire 1 D sChecking_next $end
$var wire 1 E sGarbage_next $end
$var wire 1 F sReject_next $end
$var wire 1 G sStart_next $end
$var wire 1 ! select $end
$var wire 1 H sStart $end
$var wire 1 I sReject $end
$var wire 1 J sGarbage $end
$var wire 1 K sChecking $end
$var wire 1 L sAccept $end
$var wire 1 " palindrome $end
$var wire 1 # load $end
$var wire 1 % done $end
$scope module dfGarbage $end
$var wire 1 ( clk $end
$var wire 1 E d $end
$var wire 1 M enable $end
$var wire 1 N reset $end
$var reg 1 J q $end
$upscope $end
$scope module dfaccept $end
$var wire 1 ( clk $end
$var wire 1 C d $end
$var wire 1 O enable $end
$var wire 1 P reset $end
$var reg 1 L q $end
$upscope $end
$scope module dfchecking $end
$var wire 1 ( clk $end
$var wire 1 D d $end
$var wire 1 Q enable $end
$var wire 1 R reset $end
$var reg 1 K q $end
$upscope $end
$scope module dfreject $end
$var wire 1 ( clk $end
$var wire 1 F d $end
$var wire 1 S enable $end
$var wire 1 T reset $end
$var reg 1 I q $end
$upscope $end
$scope module dfstart $end
$var wire 1 ( clk $end
$var wire 1 G d $end
$var wire 1 U enable $end
$var wire 1 V reset $end
$var reg 1 H q $end
$upscope $end
$upscope $end
$upscope $end
$enddefinitions $end
#0
$dumpvars
0V
1U
0T
1S
0R
1Q
0P
1O
0N
1M
xL
xK
xJ
xI
xH
0G
0F
1E
xD
xC
b100000 B
b0 A
bx @
b0 ?
bx >
z=
bz <
bz ;
bx :
bx 9
bx 8
x7
06
b0 5
b0 4
b0 3
b0 2
bx 1
bx 0
0/
bx .
bx -
bx ,
1+
0*
bx )
0(
bx '
x&
x%
1$
x#
x"
x!
$end
#1
0D
1J
0H
0I
0F
1E
0&
07
b0 0
b0 8
b0 @
b0 1
b0 9
b0 >
b100000 ,
0+
1(
bz :
#2
0(
#3
0#
0C
0!
0K
1G
0E
1(
1*
b1110 )
b1110 .
b1011 '
b1011 -
#4
0(
#5
1#
0%
0"
0J
1H
0L
1(
#6
0(
#7
0$
1/
b1110 2
b1110 5
b1110 A
16
b1011 3
b1011 4
b1011 ?
1(
#8
b10010001101000100001100100001 0
b10010001101000100001100100001 8
b10010001101000100001100100001 @
0&
b10010001101000100001100100001 1
b10010001101000100001100100001 9
b10010001101000100001100100001 >
0(
#9
1(
#10
0(
#11
1(
#12
0(
#13
1(
#14
0(
#15
1(
#16
0(
#17
1(
#18
0(
#19
1(
#20
0(
#21
1(
#22
0(
#23
0G
1D
1(
0*
#24
0(
#25
1D
1!
0H
1K
1(
#26
0(
#27
b1101 2
b1101 5
b1101 A
b1100 3
b1100 4
b1100 ?
1(
#28
b0 0
b0 8
b0 @
0&
07
b0 1
b0 9
b0 >
0(
#29
0D
1C
1$
b1100 2
b1100 5
b1100 A
0/
16
b1101 3
b1101 4
b1101 ?
1(
#30
0(
#31
1%
0#
1"
0!
1L
0K
b1011 2
b1011 5
b1011 A
b1110 3
b1110 4
b1110 ?
1(
#32
b10010001101000100001100100001 0
b10010001101000100001100100001 8
b10010001101000100001100100001 @
0&
b10010001101000100001100100001 1
b10010001101000100001100100001 9
b10010001101000100001100100001 >
0(
#33
1G
0C
1(
1*
b110 )
b110 .
b10 '
b10 -
#34
0(
#35
0%
1#
0"
0L
1H
1(
#36
0(
#37
0$
b110 2
b110 5
b110 A
1/
b10 3
b10 4
b10 ?
1(
#38
b11001010111111101011101010111110 0
b11001010111111101011101010111110 8
b11001010111111101011101010111110 @
0&
b11001010111111101011101010111110 1
b11001010111111101011101010111110 9
b11001010111111101011101010111110 >
0(
#39
1(
#40
0(
#41
1(
#42
0(
#43
1(
#44
0(
#45
1(
#46
0(
#47
1(
#48
0(
#49
1(
#50
0(
#51
1(
#52
0(
#53
0G
1D
1(
0*
#54
0(
#55
1!
1D
1K
0H
1(
#56
0(
#57
b101 2
b101 5
b101 A
b11 3
b11 4
b11 ?
1(
#58
b11111111111111111111111111111111 0
b11111111111111111111111111111111 8
b11111111111111111111111111111111 @
0&
b11111111111111111111111111111111 1
b11111111111111111111111111111111 9
b11111111111111111111111111111111 >
0(
#59
0D
1C
1$
0/
06
b100 2
b100 5
b100 A
b100 3
b100 4
b100 ?
1(
#60
b1011001111010001111001010101 0
b1011001111010001111001010101 8
b1011001111010001111001010101 @
0&
07
b1011001111010001111001010101 1
b1011001111010001111001010101 9
b1011001111010001111001010101 >
0(
#61
0#
1%
0!
1"
b11 2
b11 5
b11 A
16
b101 3
b101 4
b101 ?
0K
1L
1(
#62
b11111111111111111111111111111111 0
b11111111111111111111111111111111 8
b11111111111111111111111111111111 @
0&
b11111111111111111111111111111111 1
b11111111111111111111111111111111 9
b11111111111111111111111111111111 >
0(
#63
1G
0C
1(
1*
b1011 )
b1011 .
b111 '
b111 -
#64
0(
#65
1G
1#
0%
0"
1H
0L
1(
#66
0(
#67
0$
1/
b1011 2
b1011 5
b1011 A
b111 3
b111 4
b111 ?
1(
#68
b110011001100110011001100110011 0
b110011001100110011001100110011 8
b110011001100110011001100110011 @
0&
07
b110011001100110011001100110011 1
b110011001100110011001100110011 9
b110011001100110011001100110011 >
0(
#69
1(
#70
0(
#71
1(
#72
0(
#73
1(
#74
0(
#75
1(
#76
0(
#77
1(
#78
0(
#79
1(
#80
0(
#81
1(
#82
0(
#83
0G
1D
1(
0*
#84
0(
#85
1D
1!
0H
1K
1(
#86
0(
#87
b1010 2
b1010 5
b1010 A
b1000 3
b1000 4
b1000 ?
1(
#88
0D
1F
b10111010101100111101000011010011 0
b10111010101100111101000011010011 8
b10111010101100111101000011010011 @
1&
b11000000000000011101000011010011 1
b11000000000000011101000011010011 9
b11000000000000011101000011010011 >
0(
#89
0#
1%
0!
1$
0/
06
b1001 2
b1001 5
b1001 A
b1001 3
b1001 4
b1001 ?
0K
1I
1(
#90
0&
b11111111111111111111111111111111 0
b11111111111111111111111111111111 8
b11111111111111111111111111111111 @
b11111111111111111111111111111111 1
b11111111111111111111111111111111 9
b11111111111111111111111111111111 >
0(
